{"contents":[{"originProductNo":13067834905,"channelProducts":[{"originProductNo":13067834905,"channelProductNo":13125967024,"channelServiceType":"STOREFARM","categoryId":"50000837","name":"YVES SAINT LAURENT 입생로랑 투버튼 싱글 자켓 MAN-S","sellerManagementCode":"AAAGJU2012","statusType":"SALE","channelProductDisplayStatusType":"ON","salePrice":125000,"discountedPrice":125000,"mobileDiscountedPrice":125000,"stockQuantity":1,"knowledgeShoppingProductRegistration":true,"deliveryAttributeType":"NORMAL","deliveryFee":3500,"returnFee":3500,"exchangeFee":7000,"sellerPurchasePoint":5,"sellerPurchasePointUnitType":"PERCENT","managerPurchasePoint":1,"freeInterest":3,"wholeCategoryName":"패션의류>남성의류>점퍼","wholeCategoryId":"50000000>50000169>50000837","representativeImage":{"url":"https://shop-phinf.pstatic.net/20260217_63/1771260342728aAoqG_JPEG/105393167782074071_1049116072.jpeg"},"modelName":"AAAGJU2012","brandName":"자체브랜드","manufacturerName":"자체제작","sellerTags":[],"regDate":"2026-02-17T01:45:46.551+09:00","modifiedDate":"2026-02-17T01:45:46.551+09:00"}]}],"page":1,"size":1,"totalElements":1136,"totalPages":1136,"sort":{"sorted":true,"fields":[{"name":"regDate","direction":"DESC"},{"name":"productNo","direction":"DESC"}]},"first":true,"last":false}